{
  "name": "digisales",
  "displayName": "DigiSales",
  "version": "1.0.0",
  "description": "DigiSales cordova application.",
  "main": "index.js",
  "scripts": {
    "test": "echo \"Error: no test specified\" && exit 1"
  },
  "author": "Jared O. Momanyi",
  "license": "Apache-2.0",
  "dependencies": {
    "cordova-browser": "^5.0.4",
    "cordova-plugin-battery-status": "^2.0.3",
    "cordova-plugin-bluetooth-serial": "^0.4.7",
    "cordova-plugin-btprinter": "git+https://github.com/CesarBalzer/Cordova-Plugin-BTPrinter.git",
    "cordova-plugin-cszbar": "file:../../../Downloads/csZBar-master",
    "cordova-plugin-device": "^2.0.3",
    "cordova-plugin-embedded-barcode-reader": "git+https://github.com/CodifiLLC/cordova-plugin-embedded-barcode-reader.git",
    "cordova-plugin-fcm-with-dependecy-updated": "^4.1.1",
    "cordova-plugin-geolocation": "^4.0.2",
    "cordova-plugin-network-information": "^2.0.2",
    "cordova-plugin-printer": "^0.7.3",
    "cordova-plugin-request-location-accuracy": "^2.3.0",
    "cordova-plugin-whitelist": "^1.3.4",
    "cordova-sqlite-storage": "^5.1.0",
    "cordova.plugins.diagnostic": "^5.0.1",
    "skwas-cordova-plugin-datetimepicker": "^2.1.1",
    "timeago": "^1.6.7"
  },
  "cordova": {
    "plugins": {
      "cordova-plugin-whitelist": {},
      "cordova-plugin-printer": {},
      "cordova-plugin-device": {},
      "cordova-plugin-btprinter": {},
      "cordova-plugin-geolocation": {},
      "cordova-plugin-battery-status": {},
      "cordova-plugin-fcm-with-dependecy-updated": {
        "FCM_CORE_VERSION": "16.0.9",
        "FCM_VERSION": "18.0.0",
        "GRADLE_TOOLS_VERSION": "3.5.0",
        "GOOGLE_SERVICES_VERSION": "4.2.0"
      },
      "cordova-plugin-request-location-accuracy": {
        "PLAY_SERVICES_LOCATION_VERSION": "16.+"
      },
      "cordova.plugins.diagnostic": {
        "ANDROID_SUPPORT_VERSION": "28.+"
      },
      "cordova-plugin-network-information": {},
      "skwas-cordova-plugin-datetimepicker": {},
      "cordova-plugin-cszbar": {},
      "cordova-plugin-embedded-barcode-reader": {},
      "cordova-plugin-bluetooth-serial": {}
    },
    "platforms": [
      "browser",
      "android"
    ]
  },
  "devDependencies": {
    "cordova-android": "^8.0.0"
  }
}